<?xml version="1.0" encoding="UTF-8" standalone="no"?>
<!-- Created with Inkscape (http://www.inkscape.org/) -->

<svg
   width="152.87045mm"
   height="124.11594mm"
   viewBox="0 0 152.87045 124.11594"
   version="1.1"
   id="svg975"
   inkscape:version="1.1 (c4e8f9ed74, 2021-05-24)"
   sodipodi:docname="krrish.svg"
   xmlns:inkscape="http://www.inkscape.org/namespaces/inkscape"
   xmlns:sodipodi="http://sodipodi.sourceforge.net/DTD/sodipodi-0.dtd"
   xmlns:xlink="http://www.w3.org/1999/xlink"
   xmlns="http://www.w3.org/2000/svg"
   xmlns:svg="http://www.w3.org/2000/svg">
  <sodipodi:namedview
     id="namedview977"
     pagecolor="#ffffff"
     bordercolor="#666666"
     borderopacity="1.0"
     inkscape:pageshadow="2"
     inkscape:pageopacity="0.0"
     inkscape:pagecheckerboard="0"
     inkscape:document-units="mm"
     showgrid="false"
     inkscape:zoom="0.61103033"
     inkscape:cx="-414.05473"
     inkscape:cy="244.66871"
     inkscape:window-width="1366"
     inkscape:window-height="706"
     inkscape:window-x="0"
     inkscape:window-y="0"
     inkscape:window-maximized="1"
     inkscape:current-layer="layer1"
     inkscape:object-nodes="false" />
  <defs
     id="defs972">
    <radialGradient
       inkscape:collect="always"
       xlink:href="#linearGradient28422"
       id="radialGradient32972"
       cx="1201.3239"
       cy="155.02684"
       fx="1201.3239"
       fy="155.02684"
       r="131.38699"
       gradientTransform="matrix(0.02169135,-2.1859829e-5,2.2887473e-5,0.02271137,304.23883,172.7417)"
       gradientUnits="userSpaceOnUse" />
    <linearGradient
       inkscape:collect="always"
       id="linearGradient28422">
      <stop
         style="stop-color:#ffff00;stop-opacity:1"
         offset="0"
         id="stop28418" />
      <stop
         style="stop-color:#d66100;stop-opacity:1"
         offset="1"
         id="stop28420" />
    </linearGradient>
    <filter
       inkscape:collect="always"
       style="color-interpolation-filters:sRGB"
       id="filter1786"
       x="-0.04745924"
       y="-0.048553224"
       width="1.0949185"
       height="1.0971064">
      <feGaussianBlur
         inkscape:collect="always"
         stdDeviation="0.72753103"
         id="feGaussianBlur1788" />
    </filter>
    <filter
       inkscape:collect="always"
       style="color-interpolation-filters:sRGB"
       id="filter1810"
       x="-0.0029662341"
       y="-0.0030345434"
       width="1.0059325"
       height="1.0060691">
      <feGaussianBlur
         inkscape:collect="always"
         stdDeviation="0.012975177"
         id="feGaussianBlur1812" />
    </filter>
  </defs>
  <g
     inkscape:label="Layer 1"
     inkscape:groupmode="layer"
     id="layer1"
     transform="translate(-253.86531,-77.065941)">
    <g
       id="g1830">
      <path
         id="path1524"
         style="color:#000000;opacity:0.916162;fill:#ececec;fill-opacity:1;stroke-width:0.130179;stroke-linecap:round;stroke-linejoin:round;-inkscape-stroke:none"
         d="m 330.2985,170.7741 a 0.25835091,0.25835091 0 0 0 -0.15709,0.0534 c -1.12415,0.86357 -1.78342,2.201 -1.78358,3.61857 a 0.25835091,0.25835091 0 0 0 0,2.4e-4 c 0,0.0621 0.002,0.12402 0.004,0.18581 0.16701,-0.0746 0.3382,-0.13984 0.51248,-0.19509 0.003,-1.18142 0.53518,-2.28583 1.42699,-3.05025 0.24303,0.20789 0.46498,0.43873 0.65543,0.69411 0.25329,0.0439 0.50216,0.11279 0.74207,0.20551 -0.0221,-0.0411 -0.0446,-0.0819 -0.068,-0.12236 a 0.25835091,0.25835091 0 0 0 0,-7e-5 0.25835091,0.25835091 0 0 0 0,-7e-5 0.25835091,0.25835091 0 0 0 0,-7e-5 c -0.30024,-0.51841 -0.69973,-0.9725 -1.17544,-1.33663 a 0.25835091,0.25835091 0 0 0 -0.15715,-0.0532 z m 0.002,1.45779 c -0.17759,0 -0.35221,0.0129 -0.52317,0.0372 -0.11395,0.16251 -0.21548,0.33365 -0.30333,0.5116 0.26384,-0.0689 0.54079,-0.10568 0.8265,-0.10568 1.64146,0 2.99465,1.21085 3.21837,2.78964 0.17036,0.15632 0.32915,0.32533 0.47514,0.50488 0,-0.0144 10e-4,-0.0286 10e-4,-0.043 0,-2.03783 -1.65675,-3.69458 -3.69459,-3.69458 z m -1.82025,0.48019 c -1.1185,0.63564 -1.87433,1.83802 -1.87433,3.21439 0,0.89168 0.3172,1.7104 0.84473,2.34928 0.19747,0.0135 0.3958,0.0105 0.59294,-0.008 -0.61306,-0.59104 -0.99455,-1.4206 -0.99455,-2.34127 0,-1.03059 0.47733,-1.94763 1.22327,-2.54295 0.0529,-0.22846 0.12239,-0.45304 0.20794,-0.67145 z m 3.02604,0.4187 c 0.14486,0.42153 0.21989,0.86574 0.21991,1.31503 -4.9e-4,0.53257 -0.10969,1.04895 -0.30992,1.52621 l -0.007,-0.002 c -0.0656,0.16337 -0.14262,0.32126 -0.22813,0.47407 -0.19892,0.34114 -0.44753,0.65492 -0.74019,0.92997 0.004,0.004 0.009,0.008 0.0139,0.0115 0,1e-4 -5e-4,2.4e-4 -5e-4,4.9e-4 0.0391,0.0332 0.079,0.0658 0.11955,0.0973 0.0488,0.0383 0.0987,0.0753 0.14948,0.11099 0.0138,0.01 0.0282,0.0184 0.0421,0.0279 0.0372,0.0254 0.0743,0.0508 0.11247,0.0748 0,0 0,-7e-5 0,-7e-5 4.9e-4,2.5e-4 0.001,6.2e-4 0.001,0.001 0.21566,-0.21232 0.40831,-0.44567 0.57706,-0.69512 5e-4,-2.5e-4 5e-4,-6.2e-4 6.2e-4,-0.001 0.0359,-0.053 0.0702,-0.10697 0.1038,-0.16145 0.008,-0.0122 0.0154,-0.0243 0.0228,-0.0366 0.0285,-0.0473 0.0558,-0.0953 0.0826,-0.14362 0.0114,-0.0206 0.023,-0.0409 0.0341,-0.0616 0.0229,-0.0428 0.0447,-0.0861 0.0663,-0.12964 0.0135,-0.0273 0.0271,-0.0546 0.0401,-0.0821 0.0182,-0.0387 0.0356,-0.0778 0.0527,-0.11705 0.0146,-0.0334 0.0289,-0.0667 0.0427,-0.10044 0.007,-0.0169 0.0147,-0.0334 0.0214,-0.0504 l -10e-4,-5e-4 c 0.2079,-0.52601 0.32003,-1.09193 0.32041,-1.67197 a 0.25835091,0.25835091 0 0 0 0,-8e-5 0.25835091,0.25835091 0 0 0 0,-6e-5 0.25835091,0.25835091 0 0 0 0,-7e-5 0.25835091,0.25835091 0 0 0 0,-7e-5 c 1e-5,-0.31859 -0.0339,-0.63485 -0.0993,-0.94403 -0.19642,-0.14897 -0.41092,-0.27366 -0.63727,-0.37128 z m -1.16522,1.29277 c -0.0119,-1.1e-4 -0.0238,6.1e-4 -0.0358,6.1e-4 -0.0111,0 -0.0221,-4.9e-4 -0.0332,-4.9e-4 v 0 c -0.0394,2.5e-4 -0.0785,0.002 -0.1178,0.004 -0.0472,0.001 -0.0944,0.004 -0.14161,0.007 -0.0564,0.004 -0.11259,0.008 -0.16865,0.0134 -0.0358,0.004 -0.0715,0.008 -0.10723,0.0128 -0.0445,0.006 -0.0889,0.0117 -0.13313,0.0185 -0.1075,0.0167 -0.21473,0.0359 -0.32122,0.0603 v 0.001 c -0.73701,0.16904 -1.42868,0.51918 -2.00452,1.02718 -0.0104,0.0897 -0.017,0.18005 -0.0196,0.2709 -0.005,0.15018 0.002,0.30355 0.0197,0.45544 0.56145,-0.63083 1.29797,-1.0582 2.09587,-1.24575 l 0.003,0.0161 c 0.38514,-0.0965 0.77848,-0.13963 1.17033,-0.11624 0.30395,0.021 0.60809,0.0829 0.90844,0.17571 0.001,-0.005 0.001,-0.01 0.002,-0.0147 0,2e-5 0,3e-5 4.9e-4,7e-5 0.004,-0.0204 0.007,-0.0409 0.01,-0.0614 0.003,-0.0208 0.007,-0.0416 0.0101,-0.0624 0.003,-0.022 0.006,-0.0442 0.009,-0.0662 0.003,-0.0221 0.006,-0.0441 0.008,-0.0662 0.003,-0.0289 0.006,-0.058 0.008,-0.087 10e-4,-0.0144 0.003,-0.0287 0.004,-0.0431 0.003,-0.0444 0.006,-0.0889 0.008,-0.1334 -0.0181,-0.005 -0.0365,-0.009 -0.0546,-0.0137 -0.0418,-0.011 -0.0837,-0.0215 -0.12568,-0.0313 -0.0252,-0.006 -0.0503,-0.0119 -0.0756,-0.0174 -0.0554,-0.012 -0.11093,-0.0229 -0.16649,-0.0328 -0.0263,-0.005 -0.0525,-0.009 -0.0788,-0.0131 -0.0422,-0.007 -0.0844,-0.0128 -0.12667,-0.0184 -0.0384,-0.005 -0.0769,-0.01 -0.11538,-0.0136 -0.0399,-0.004 -0.0798,-0.008 -0.11967,-0.011 -0.0174,-0.001 -0.0346,-0.004 -0.0521,-0.005 -0.009,-6.1e-4 -0.0184,-4.9e-4 -0.0276,-0.001 -0.0492,-0.003 -0.0983,-0.006 -0.14745,-0.007 -0.0142,-4.9e-4 -0.0284,-1.3e-4 -0.0426,-4.9e-4 -0.0137,-2.5e-4 -0.0274,-0.001 -0.0411,-0.001 z m 2.0812,0.52364 c -0.0198,0.18108 -0.0498,0.36106 -0.09,0.53879 1.02122,0.59324 1.71133,1.60624 1.92734,2.76044 -0.3273,0.11565 -0.66547,0.19698 -1.00988,0.2298 -0.16592,0.19306 -0.35031,0.37013 -0.5509,0.52695 0.0741,0.004 0.14833,0.006 0.22274,0.006 a 0.25835091,0.25835091 0 0 0 4.9e-4,0 c 0.59908,-6.1e-4 1.19204,-0.1197 1.74524,-0.34962 a 0.25835091,0.25835091 0 0 0 0.15688,-0.27231 c -0.18579,-1.40533 -1.01448,-2.64501 -2.24205,-3.35393 a 0.25835091,0.25835091 0 0 0 0,-6e-5 0.25835091,0.25835091 0 0 0 0,-7e-5 0.25835091,0.25835091 0 0 0 0,-7e-5 c -0.0526,-0.0303 -0.10627,-0.0579 -0.15977,-0.086 z m -3.41804,0.4253 c -0.006,0.002 -0.011,0.004 -0.0165,0.006 -3e-5,-1e-4 0,-2.4e-4 0,-4.9e-4 -0.0249,0.009 -0.0495,0.0189 -0.0743,0.0285 -0.0137,0.006 -0.0276,0.0104 -0.0413,0.0159 -0.0283,0.0113 -0.0564,0.0233 -0.0844,0.0353 -0.0132,0.006 -0.0264,0.011 -0.0395,0.0167 -0.0299,0.0132 -0.0595,0.0271 -0.0891,0.041 -0.011,0.005 -0.0221,0.0101 -0.0331,0.0153 -0.0406,0.0196 -0.0809,0.0399 -0.12081,0.0609 0.0337,0.12961 0.0748,0.25684 0.1196,0.38257 0.008,0.0216 0.015,0.0435 0.023,0.065 0.0172,0.0461 0.0357,0.0915 0.0543,0.13696 0.0128,0.0313 0.0257,0.0626 0.0392,0.0936 0.0172,0.0393 0.0351,0.0783 0.0533,0.11712 0.0175,0.0372 0.0355,0.074 0.054,0.11059 0.017,0.0337 0.0341,0.0674 0.0519,0.10064 0.0232,0.0434 0.0475,0.0861 0.072,0.12863 0.0151,0.0261 0.0298,0.0524 0.0454,0.0782 0.0344,0.057 0.0703,0.11292 0.10716,0.16831 0.008,0.0115 0.0148,0.0233 0.0225,0.0347 0.0952,0.14036 0.19857,0.27513 0.30898,0.40424 10e-4,0.001 0.002,0.003 0.004,0.004 l 4.9e-4,-1.3e-4 c 0.33111,0.38616 0.72756,0.71933 1.17874,0.98022 a 0.25835091,0.25835091 0 0 0 4.9e-4,2.5e-4 c 0.25093,0.14488 0.51418,0.26457 0.78574,0.35883 0.22949,-0.0904 0.44788,-0.20875 0.64811,-0.35439 -0.41132,-0.0882 -0.80824,-0.23983 -1.17559,-0.45194 -0.35898,-0.20757 -0.67681,-0.4672 -0.94794,-0.76636 l 0.0131,-0.006 c -0.19858,-0.21328 -0.37279,-0.4459 -0.52069,-0.69331 -0.19758,-0.34443 -0.34606,-0.71864 -0.43835,-1.11181 z m -2.55728,1.16865 c -0.0339,0.0533 -0.0671,0.1073 -0.099,0.16246 a 0.25835091,0.25835091 0 0 0 -4.9e-4,5e-4 c -0.2985,0.51862 -0.49213,1.09082 -0.56979,1.68416 a 0.25835091,0.25835091 0 0 0 0.15715,0.27204 c 0.55268,0.22941 1.14502,0.34807 1.74342,0.34888 a 0.25835091,0.25835091 0 0 0 4.9e-4,0 c 0.8011,-2e-5 1.58791,-0.21095 2.28167,-0.61151 0.0528,-0.0305 0.10461,-0.0624 0.15594,-0.0948 -0.14729,-0.10782 -0.28833,-0.2242 -0.42247,-0.34807 -0.61317,0.35213 -1.30774,0.53765 -2.01494,0.53771 -0.45856,-6.2e-4 -0.90888,-0.094 -1.34019,-0.24662 0.0623,-0.33554 0.15844,-0.66383 0.29815,-0.97397 -0.0881,-0.23666 -0.15132,-0.48178 -0.19012,-0.73084 z m 6.98911,0.24709 c -0.37694,1.37869 -1.6358,2.38971 -3.13556,2.38971 -0.39735,0 -0.77774,-0.0711 -1.12943,-0.20107 -0.22258,0.0729 -0.4506,0.12908 -0.68153,0.16837 0.5355,0.30238 1.15313,0.47582 1.81096,0.47582 1.55411,0 2.88566,-0.96401 3.43068,-2.32533 -0.0855,-0.17627 -0.18413,-0.34613 -0.29512,-0.5075 z"
         inkscape:export-filename="/home/vishal/Documents/viar-logo1.png"
         inkscape:export-xdpi="36.533211"
         inkscape:export-ydpi="36.533211" />
      <path
         id="rect1792"
         style="fill:#ccebf0;fill-opacity:1;stroke-width:1.09194"
         d="m 314.74377,180.00229 -4.51189,18.10897 h 40.13709 l -4.51133,-18.10897 z m -10.53322,18.13895 v 3.04064 h 51.63305 v -3.04064 z" />
      <path
         id="rect3135"
         style="fill:#c8cbcf;fill-opacity:1;stroke:none;stroke-width:1.41436"
         d="m 314.74377,180.00229 -1.19631,4.80177 h 33.50649 l -1.19631,-4.80177 z" />
      <rect
         style="fill:#b9ebc4;fill-opacity:1;stroke:none;stroke-width:1.41436"
         id="rect1330"
         width="152.87039"
         height="104.99995"
         x="253.86537"
         y="77.066093"
         ry="5.3040123" />
      <path
         id="rect1559"
         style="fill:#333333;fill-opacity:1;stroke:none;stroke-width:1.09194"
         d="m 259.16938,77.065941 c -2.93843,0 -5.30407,2.365646 -5.30407,5.304069 v 86.30016 H 406.73557 V 82.37001 c 0,-2.938423 -2.36514,-5.304069 -5.30355,-5.304069 z" />
      <rect
         style="fill:#6eabc7;fill-opacity:1;stroke:none;stroke-width:1.09194"
         id="rect1666"
         width="142.52107"
         height="81.768166"
         x="259.03989"
         y="81.983971"
         ry="0" />
      <rect
         style="fill:#377f87;fill-opacity:1;stroke:none;stroke-width:1.09194"
         id="rect3300"
         width="60.672981"
         height="60.896149"
         x="314.22952"
         y="91.544685" />
      <path
         style="fill:#dedede;fill-opacity:1;stroke:none;stroke-width:7.08798"
         d="M 314.22953,151.37905 A 30.851636,29.386284 0 0 1 283.37789,121.99276 30.851636,29.386284 0 0 1 314.22953,92.606475"
         id="path3797" />
      <path
         id="path3791"
         style="fill:#b6baba;fill-opacity:1;stroke:none;stroke-width:1.97333"
         d="m 314.22958,113.8115 a 8.5892861,8.1813227 0 0 0 -8.58914,8.18141 8.5892861,8.1813227 0 0 0 8.58914,8.18141 8.5892861,8.1813227 0 0 0 8.58915,-8.18141 8.5892861,8.1813227 0 0 0 -8.58915,-8.18141 z" />
      <path
         style="fill:#b6baba;fill-opacity:1;stroke:none;stroke-width:2.68396"
         d="m 314.22952,133.12034 a 11.682457,11.127578 0 0 1 -11.68246,-11.12758 11.682457,11.127578 0 0 1 11.68246,-11.12758"
         id="path63667" />
      <path
         id="path3668"
         style="fill:#1abc9c;fill-opacity:1;stroke:none;stroke-width:1.09194"
         d="m 314.22958,117.46554 a 4.7528445,4.5270996 0 0 0 -4.75269,4.52737 4.7528445,4.5270996 0 0 0 4.75269,4.52686 4.7528445,4.5270996 0 0 0 4.75268,-4.52686 4.7528445,4.5270996 0 0 0 -4.75268,-4.52737 z" />
      <rect
         style="fill:#b6baba;fill-opacity:1;stroke:none;stroke-width:0.0549783;stroke-miterlimit:4;stroke-dasharray:none"
         id="rect66891"
         width="55.734703"
         height="3.0406392"
         x="302.15973"
         y="198.14124"
         ry="1.1101253" />
      <path
         id="path1709"
         style="color:#000000;opacity:0.916162;fill:#000000;fill-opacity:1;stroke-width:0.529166;stroke-linecap:round;stroke-linejoin:round;-inkscape-stroke:none;filter:url(#filter1786)"
         d="m 344.55729,105.07018 a 1.0501686,1.0501686 0 0 0 -0.63852,0.21712 c -4.56959,3.51032 -7.24946,8.94686 -7.25008,14.7091 a 1.0501686,1.0501686 0 0 0 0,0.001 c 0,0.25256 0.007,0.50411 0.0175,0.75528 0.67886,-0.30319 1.37473,-0.56843 2.08318,-0.79302 0.0116,-4.80235 2.17541,-9.29168 5.80051,-12.39896 0.98794,0.84506 1.89012,1.78342 2.66426,2.8215 1.02961,0.17837 2.04123,0.4585 3.01647,0.8354 -0.0897,-0.16692 -0.18155,-0.333 -0.27646,-0.49741 a 1.0501686,1.0501686 0 0 0 0,-2.8e-4 1.0501686,1.0501686 0 0 0 0,-2.8e-4 1.0501686,1.0501686 0 0 0 0,-2.8e-4 c -1.22045,-2.10729 -2.84433,-3.95312 -4.77807,-5.43326 a 1.0501686,1.0501686 0 0 0 -0.63879,-0.21603 z m 0.007,5.92575 c -0.7219,0 -1.43171,0.0523 -2.12666,0.15122 -0.46319,0.66057 -0.87586,1.35625 -1.233,2.07962 1.07248,-0.28014 2.19827,-0.4296 3.35966,-0.4296 6.67236,0 12.17294,4.92198 13.08231,11.33959 0.69249,0.63542 1.33796,1.32245 1.93142,2.05228 0,-0.0585 0.004,-0.11633 0.004,-0.17501 0,-8.28359 -6.73451,-15.0181 -15.0181,-15.0181 z m -7.39913,1.95192 c -4.54659,2.58383 -7.61896,7.47137 -7.61896,13.06618 0,3.62456 1.2894,6.95257 3.43376,9.54956 0.80268,0.0547 1.60888,0.0428 2.41022,-0.0325 -2.49202,-2.40254 -4.04275,-5.77461 -4.04275,-9.51702 0,-4.18922 1.94031,-7.91692 4.97249,-10.33684 0.21489,-0.92865 0.4975,-1.84154 0.84524,-2.72935 z m 12.30052,1.70197 c 0.58883,1.71348 0.89384,3.51916 0.89393,5.34548 -0.002,2.16483 -0.44587,4.26385 -1.25982,6.20386 l -0.0279,-0.008 c -0.26669,0.66408 -0.57971,1.30587 -0.92728,1.92704 -0.80862,1.38668 -1.81918,2.6622 -3.00882,3.78023 0.0185,0.0159 0.038,0.0307 0.0566,0.0465 0,4.2e-4 -0.002,0.001 -0.002,0.002 0.15907,0.13519 0.321,0.26729 0.48593,0.39569 0.1983,0.15553 0.401,0.30608 0.60761,0.45119 0.056,0.0393 0.11463,0.0749 0.17119,0.11348 0.15121,0.10307 0.30205,0.20652 0.45721,0.30408 0,0 0,-2.8e-4 0,-2.8e-4 0.002,10e-4 0.004,0.003 0.005,0.004 0.87665,-0.86308 1.65972,-1.81161 2.34569,-2.82561 0.002,-0.001 0.002,-0.003 0.003,-0.004 0.14571,-0.2155 0.28539,-0.43483 0.42195,-0.65629 0.0306,-0.0496 0.0625,-0.0986 0.0927,-0.14849 0.11603,-0.1922 0.22676,-0.38743 0.3358,-0.58382 0.0464,-0.0834 0.0935,-0.16637 0.13864,-0.25049 0.0931,-0.17388 0.1818,-0.35003 0.26936,-0.52694 0.055,-0.11098 0.11017,-0.22182 0.16297,-0.33389 0.074,-0.15738 0.14474,-0.31624 0.21439,-0.47581 0.0593,-0.13552 0.11763,-0.27132 0.17365,-0.40826 0.0281,-0.0687 0.0597,-0.13572 0.087,-0.20482 l -0.006,-0.002 c 0.8451,-2.13818 1.30091,-4.43862 1.30247,-6.79642 a 1.0501686,1.0501686 0 0 0 0,-2.8e-4 1.0501686,1.0501686 0 0 0 0,-2.8e-4 1.0501686,1.0501686 0 0 0 0,-2.8e-4 1.0501686,1.0501686 0 0 0 0,-2.8e-4 c 2e-5,-1.29503 -0.13782,-2.5806 -0.40361,-3.83738 -0.79843,-0.60554 -1.67036,-1.11242 -2.59044,-1.5092 z m -4.7365,5.25497 c -0.0484,-4.2e-4 -0.0968,0.003 -0.1452,0.003 -0.045,-3e-5 -0.0901,-0.002 -0.13508,-0.002 v 0 c -0.15993,0.001 -0.31924,0.009 -0.47882,0.0142 -0.19199,0.006 -0.38376,0.0145 -0.57562,0.0268 -0.22899,0.0147 -0.45768,0.0313 -0.68555,0.0544 -0.14555,0.0148 -0.29059,0.034 -0.43589,0.0522 -0.18083,0.0226 -0.36126,0.0473 -0.54116,0.0752 -0.43694,0.0679 -0.87285,0.14602 -1.30574,0.24529 v 0.004 c -2.99585,0.68711 -5.80743,2.11041 -8.14812,4.17538 -0.0422,0.36477 -0.0694,0.73186 -0.0799,1.1012 -0.0207,0.61046 0.007,1.23388 0.0801,1.85128 2.28221,-2.56423 5.27606,-4.30143 8.51946,-5.06382 l 0.0118,0.0656 c 1.56554,-0.39206 3.16446,-0.56761 4.75728,-0.47253 1.23553,0.0853 2.47181,0.33677 3.69272,0.71426 0.004,-0.0199 0.006,-0.04 0.01,-0.0599 0,9e-5 0,1.5e-4 0.002,2.8e-4 0.0149,-0.0829 0.0267,-0.16626 0.0402,-0.24939 0.0137,-0.0846 0.0287,-0.16898 0.041,-0.25376 0.013,-0.0895 0.0236,-0.17938 0.035,-0.26908 0.0115,-0.0897 0.0241,-0.17919 0.0339,-0.26908 0.0129,-0.1177 0.0226,-0.23561 0.0328,-0.35357 0.005,-0.0584 0.0115,-0.11659 0.0159,-0.17501 0.0136,-0.18052 0.0243,-0.36135 0.0314,-0.54227 -0.0736,-0.0203 -0.14822,-0.0361 -0.22204,-0.0555 -0.17004,-0.0449 -0.34031,-0.0872 -0.51083,-0.12716 -0.10239,-0.024 -0.20463,-0.0483 -0.30736,-0.0705 -0.22528,-0.0488 -0.45094,-0.0932 -0.67679,-0.13345 -0.10668,-0.0191 -0.21354,-0.0361 -0.32048,-0.0533 -0.17158,-0.0275 -0.34319,-0.0521 -0.51493,-0.0747 -0.15613,-0.0205 -0.31239,-0.0388 -0.46897,-0.0552 -0.16216,-0.017 -0.32432,-0.0322 -0.48648,-0.0448 -0.0706,-0.005 -0.14093,-0.0148 -0.21165,-0.0194 -0.0373,-0.003 -0.0748,-0.002 -0.11212,-0.004 -0.19988,-0.012 -0.39975,-0.0214 -0.5994,-0.0268 -0.0578,-0.002 -0.11538,-5.3e-4 -0.1731,-0.002 -0.0558,-10e-4 -0.11151,-0.006 -0.16736,-0.006 z m 8.45986,2.12857 c -0.0804,0.73606 -0.20245,1.46765 -0.36589,2.19009 4.15117,2.41146 6.95637,6.5292 7.83446,11.22091 -1.33045,0.47009 -2.70508,0.80068 -4.10509,0.93412 -0.67442,0.78476 -1.42396,1.50453 -2.23931,2.14197 0.30123,0.0147 0.60292,0.0246 0.90539,0.0246 a 1.0501686,1.0501686 0 0 0 0.002,0 c 2.43518,-0.003 4.84551,-0.48655 7.09422,-1.42115 a 1.0501686,1.0501686 0 0 0 0.63769,-1.10694 c -0.75523,-5.71253 -4.12374,-10.75167 -9.11368,-13.63332 a 1.0501686,1.0501686 0 0 0 0,-2.8e-4 1.0501686,1.0501686 0 0 0 0,-2.8e-4 1.0501686,1.0501686 0 0 0 0,-2.8e-4 c -0.21374,-0.12322 -0.43197,-0.23538 -0.64944,-0.34948 z m -13.89394,1.72878 c -0.0225,0.008 -0.0446,0.0173 -0.067,0.0255 -1.2e-4,-4.3e-4 0,-10e-4 0,-0.002 -0.10129,0.0369 -0.20138,0.077 -0.30191,0.11594 -0.0559,0.0217 -0.11223,0.0422 -0.16789,0.0645 -0.11504,0.0461 -0.22897,0.0948 -0.34291,0.14356 -0.0535,0.0229 -0.10732,0.0446 -0.16052,0.0681 -0.12163,0.0537 -0.24206,0.1101 -0.36233,0.16681 -0.0446,0.0211 -0.0898,0.0409 -0.13427,0.0623 -0.16507,0.0797 -0.32891,0.16202 -0.49112,0.24748 0.1371,0.52687 0.30396,1.04403 0.48621,1.55513 0.0313,0.088 0.0609,0.17669 0.0935,0.26416 0.07,0.18721 0.14503,0.37202 0.22095,0.55675 0.0522,0.12737 0.10446,0.25461 0.15942,0.38065 0.0699,0.15986 0.1425,0.3183 0.21686,0.47609 0.071,0.15101 0.14434,0.30064 0.21931,0.44955 0.0691,0.13705 0.13858,0.27379 0.21111,0.40909 0.0943,0.17626 0.193,0.34983 0.29287,0.52285 0.0614,0.10615 0.12107,0.21307 0.18457,0.31803 0.13983,0.23154 0.28584,0.45901 0.43562,0.68418 0.0311,0.0467 0.06,0.0947 0.0916,0.1411 0.38701,0.57056 0.80715,1.11838 1.25597,1.64319 0.005,0.006 0.01,0.0125 0.015,0.0186 l 0.002,-5.3e-4 c 1.34593,1.56968 2.95744,2.92401 4.79147,3.9845 a 1.0501686,1.0501686 0 0 0 0.002,0.001 c 1.01999,0.58892 2.09007,1.07546 3.19394,1.4586 0.93286,-0.36727 1.82059,-0.84853 2.63446,-1.44055 -1.67197,-0.35848 -3.28536,-0.9749 -4.77862,-1.83707 -1.45921,-0.84376 -2.75117,-1.89913 -3.85325,-3.11519 l 0.0533,-0.0255 c -0.8072,-0.86695 -1.51534,-1.8125 -2.11653,-2.81822 -0.80314,-1.40007 -1.4067,-2.92116 -1.78183,-4.51937 z m -10.39508,4.75044 c -0.13764,0.21689 -0.27292,0.43617 -0.40253,0.66039 a 1.0501686,1.0501686 0 0 0 -0.002,0.002 c -1.21337,2.10817 -2.00046,4.4341 -2.31616,6.84593 a 1.0501686,1.0501686 0 0 0 0.63879,1.10585 c 2.24659,0.93253 4.65441,1.41486 7.08683,1.41813 a 1.0501686,1.0501686 0 0 0 0.002,0 c 3.25636,-5e-5 6.45468,-0.85746 9.27475,-2.4857 0.21472,-0.12399 0.42523,-0.25343 0.63386,-0.3853 -0.59872,-0.43825 -1.17203,-0.91133 -1.71729,-1.41485 -2.49247,1.43137 -5.31582,2.18549 -8.19049,2.18572 -1.864,-0.003 -3.69452,-0.38216 -5.44776,-1.00248 0.25312,-1.36393 0.64406,-2.69841 1.21195,-3.95907 -0.35814,-0.96198 -0.6151,-1.95841 -0.77279,-2.9708 z m 28.40997,1.00439 c -1.53222,5.60425 -6.64934,9.71391 -12.7457,9.71391 -1.61519,0 -3.16142,-0.28917 -4.59102,-0.81735 -0.90476,0.2962 -1.83165,0.52471 -2.77036,0.68445 2.17676,1.22915 4.68733,1.93415 7.36138,1.93415 6.31727,0 11.7299,-3.91862 13.94534,-9.45222 -0.34741,-0.71655 -0.7485,-1.40698 -1.19964,-2.06294 z"
         inkscape:export-filename="/home/vishal/Documents/viar-logo1.png"
         inkscape:export-xdpi="36.533211"
         inkscape:export-ydpi="36.533211" />
      <path
         id="path35292"
         style="color:#000000;opacity:0.916162;fill:#ececec;fill-opacity:1;stroke-width:0.529166;stroke-linecap:round;stroke-linejoin:round;-inkscape-stroke:none"
         d="m 344.55729,104.01184 a 1.0501686,1.0501686 0 0 0 -0.63852,0.21712 c -4.56959,3.51032 -7.24946,8.94686 -7.25008,14.7091 a 1.0501686,1.0501686 0 0 0 0,0.001 c 0,0.25256 0.007,0.50411 0.0175,0.75528 0.67886,-0.30319 1.37473,-0.56843 2.08318,-0.79302 0.0116,-4.80235 2.17541,-9.29168 5.80051,-12.39896 0.98794,0.84506 1.89012,1.78342 2.66426,2.8215 1.02961,0.17837 2.04123,0.4585 3.01647,0.8354 -0.0897,-0.16692 -0.18155,-0.333 -0.27646,-0.49741 a 1.0501686,1.0501686 0 0 0 0,-2.8e-4 1.0501686,1.0501686 0 0 0 0,-2.8e-4 1.0501686,1.0501686 0 0 0 0,-2.8e-4 c -1.22045,-2.10729 -2.84433,-3.95312 -4.77807,-5.43326 a 1.0501686,1.0501686 0 0 0 -0.63879,-0.21603 z m 0.007,5.92575 c -0.7219,0 -1.43171,0.0523 -2.12666,0.15122 -0.46319,0.66057 -0.87586,1.35625 -1.233,2.07962 1.07248,-0.28014 2.19827,-0.4296 3.35966,-0.4296 6.67236,0 12.17294,4.92198 13.08231,11.33959 0.69249,0.63542 1.33796,1.32245 1.93142,2.05228 0,-0.0585 0.004,-0.11633 0.004,-0.17501 0,-8.28359 -6.73451,-15.0181 -15.0181,-15.0181 z m -7.39913,1.95192 c -4.54659,2.58383 -7.61896,7.47137 -7.61896,13.06618 0,3.62456 1.2894,6.95257 3.43376,9.54956 0.80268,0.0547 1.60888,0.0428 2.41022,-0.0325 -2.49202,-2.40254 -4.04275,-5.77461 -4.04275,-9.51702 0,-4.18922 1.94031,-7.91692 4.97249,-10.33684 0.21489,-0.92865 0.4975,-1.84154 0.84524,-2.72935 z m 12.30052,1.70197 c 0.58883,1.71348 0.89384,3.51916 0.89393,5.34548 -0.002,2.16483 -0.44587,4.26385 -1.25982,6.20386 l -0.0279,-0.008 c -0.26669,0.66408 -0.57971,1.30587 -0.92728,1.92704 -0.80862,1.38668 -1.81918,2.6622 -3.00882,3.78023 0.0185,0.0159 0.038,0.0307 0.0566,0.0465 0,4.2e-4 -0.002,10e-4 -0.002,0.002 0.15907,0.13519 0.321,0.26729 0.48593,0.39569 0.1983,0.15553 0.401,0.30608 0.60761,0.45119 0.056,0.0393 0.11463,0.0749 0.17119,0.11348 0.15121,0.10307 0.30205,0.20652 0.45721,0.30408 0,0 0,-2.8e-4 0,-2.8e-4 0.002,0.001 0.004,0.003 0.005,0.004 0.87665,-0.86308 1.65972,-1.81161 2.34569,-2.82561 0.002,-0.001 0.002,-0.003 0.003,-0.004 0.14571,-0.2155 0.28539,-0.43483 0.42195,-0.65629 0.0306,-0.0496 0.0625,-0.0986 0.0927,-0.14849 0.11603,-0.1922 0.22676,-0.38743 0.3358,-0.58382 0.0464,-0.0834 0.0935,-0.16637 0.13864,-0.25049 0.0931,-0.17388 0.1818,-0.35003 0.26936,-0.52694 0.055,-0.11098 0.11017,-0.22182 0.16297,-0.33389 0.074,-0.15738 0.14474,-0.31624 0.21439,-0.47581 0.0593,-0.13552 0.11763,-0.27132 0.17365,-0.40826 0.0281,-0.0687 0.0597,-0.13572 0.087,-0.20482 l -0.006,-0.002 c 0.8451,-2.13818 1.30091,-4.43862 1.30247,-6.79642 a 1.0501686,1.0501686 0 0 0 0,-2.8e-4 1.0501686,1.0501686 0 0 0 0,-2.8e-4 1.0501686,1.0501686 0 0 0 0,-2.8e-4 1.0501686,1.0501686 0 0 0 0,-2.8e-4 c 2e-5,-1.29503 -0.13782,-2.5806 -0.40361,-3.83738 -0.79843,-0.60554 -1.67036,-1.11242 -2.59044,-1.5092 z m -4.7365,5.25497 c -0.0484,-4.2e-4 -0.0968,0.003 -0.1452,0.003 -0.045,-3e-5 -0.0901,-0.002 -0.13508,-0.002 v 0 c -0.15993,0.001 -0.31924,0.009 -0.47882,0.0142 -0.19199,0.006 -0.38376,0.0145 -0.57562,0.0268 -0.22899,0.0147 -0.45768,0.0313 -0.68555,0.0544 -0.14555,0.0148 -0.29059,0.034 -0.43589,0.0522 -0.18083,0.0226 -0.36126,0.0473 -0.54116,0.0752 -0.43694,0.0679 -0.87285,0.14602 -1.30574,0.24529 v 0.004 c -2.99585,0.68711 -5.80743,2.11041 -8.14812,4.17538 -0.0422,0.36477 -0.0694,0.73186 -0.0799,1.1012 -0.0207,0.61046 0.007,1.23388 0.0801,1.85128 2.28221,-2.56423 5.27606,-4.30143 8.51946,-5.06382 l 0.0118,0.0656 c 1.56554,-0.39206 3.16446,-0.56761 4.75728,-0.47253 1.23553,0.0853 2.47181,0.33677 3.69272,0.71426 0.004,-0.0199 0.006,-0.04 0.01,-0.0599 0,9e-5 0,1.5e-4 0.002,2.8e-4 0.0149,-0.0829 0.0267,-0.16626 0.0402,-0.24939 0.0137,-0.0846 0.0287,-0.16898 0.041,-0.25376 0.013,-0.0895 0.0236,-0.17938 0.035,-0.26908 0.0115,-0.0897 0.0241,-0.17919 0.0339,-0.26908 0.0129,-0.1177 0.0226,-0.23561 0.0328,-0.35357 0.005,-0.0584 0.0115,-0.11659 0.0159,-0.17501 0.0136,-0.18052 0.0243,-0.36135 0.0314,-0.54227 -0.0736,-0.0203 -0.14822,-0.0361 -0.22204,-0.0555 -0.17004,-0.0449 -0.34031,-0.0872 -0.51083,-0.12716 -0.10239,-0.024 -0.20463,-0.0483 -0.30736,-0.0705 -0.22528,-0.0488 -0.45094,-0.0932 -0.67679,-0.13345 -0.10668,-0.0191 -0.21354,-0.0361 -0.32048,-0.0533 -0.17158,-0.0275 -0.34319,-0.0521 -0.51493,-0.0747 -0.15613,-0.0205 -0.31239,-0.0388 -0.46897,-0.0552 -0.16216,-0.017 -0.32432,-0.0322 -0.48648,-0.0448 -0.0706,-0.005 -0.14093,-0.0148 -0.21165,-0.0194 -0.0373,-0.003 -0.0748,-0.002 -0.11212,-0.004 -0.19988,-0.012 -0.39975,-0.0214 -0.5994,-0.0268 -0.0578,-0.002 -0.11538,-5.3e-4 -0.1731,-0.002 -0.0558,-0.001 -0.11151,-0.006 -0.16736,-0.006 z m 8.45986,2.12857 c -0.0804,0.73606 -0.20245,1.46765 -0.36589,2.19009 4.15117,2.41146 6.95637,6.5292 7.83446,11.22091 -1.33045,0.47009 -2.70508,0.80068 -4.10509,0.93412 -0.67442,0.78476 -1.42396,1.50453 -2.23931,2.14197 0.30123,0.0147 0.60292,0.0246 0.90539,0.0246 a 1.0501686,1.0501686 0 0 0 0.002,0 c 2.43518,-0.003 4.84551,-0.48655 7.09422,-1.42115 a 1.0501686,1.0501686 0 0 0 0.63769,-1.10694 c -0.75523,-5.71253 -4.12374,-10.75167 -9.11368,-13.63332 a 1.0501686,1.0501686 0 0 0 0,-2.8e-4 1.0501686,1.0501686 0 0 0 0,-2.8e-4 1.0501686,1.0501686 0 0 0 0,-2.8e-4 c -0.21374,-0.12322 -0.43197,-0.23538 -0.64944,-0.34948 z m -13.89394,1.72878 c -0.0225,0.008 -0.0446,0.0173 -0.067,0.0255 -1.2e-4,-4.3e-4 0,-10e-4 0,-0.002 -0.10129,0.0369 -0.20138,0.077 -0.30191,0.11594 -0.0559,0.0217 -0.11223,0.0422 -0.16789,0.0645 -0.11504,0.0461 -0.22897,0.0948 -0.34291,0.14356 -0.0535,0.0229 -0.10732,0.0446 -0.16052,0.0681 -0.12163,0.0537 -0.24206,0.1101 -0.36233,0.16681 -0.0446,0.0211 -0.0898,0.0409 -0.13427,0.0623 -0.16507,0.0797 -0.32891,0.16202 -0.49112,0.24748 0.1371,0.52687 0.30396,1.04403 0.48621,1.55513 0.0313,0.088 0.0609,0.17669 0.0935,0.26416 0.07,0.18721 0.14503,0.37202 0.22095,0.55675 0.0522,0.12737 0.10446,0.25461 0.15942,0.38065 0.0699,0.15986 0.1425,0.3183 0.21686,0.47609 0.071,0.15101 0.14434,0.30064 0.21931,0.44955 0.0691,0.13705 0.13858,0.27379 0.21111,0.40909 0.0943,0.17626 0.193,0.34983 0.29287,0.52285 0.0614,0.10615 0.12107,0.21307 0.18457,0.31803 0.13983,0.23154 0.28584,0.45901 0.43562,0.68418 0.0311,0.0467 0.06,0.0947 0.0916,0.1411 0.38701,0.57056 0.80715,1.11838 1.25597,1.64319 0.005,0.006 0.01,0.0125 0.015,0.0186 l 0.002,-5.3e-4 c 1.34593,1.56968 2.95744,2.92401 4.79147,3.9845 a 1.0501686,1.0501686 0 0 0 0.002,0.001 c 1.01999,0.58892 2.09007,1.07546 3.19394,1.4586 0.93286,-0.36727 1.82059,-0.84853 2.63446,-1.44055 -1.67197,-0.35848 -3.28536,-0.9749 -4.77862,-1.83707 -1.45921,-0.84376 -2.75117,-1.89913 -3.85325,-3.11519 l 0.0533,-0.0255 c -0.8072,-0.86695 -1.51534,-1.8125 -2.11653,-2.81822 -0.80314,-1.40007 -1.4067,-2.92116 -1.78183,-4.51937 z m -10.39508,4.75044 c -0.13764,0.21689 -0.27292,0.43617 -0.40253,0.66039 a 1.0501686,1.0501686 0 0 0 -0.002,0.002 c -1.21337,2.10817 -2.00046,4.4341 -2.31616,6.84593 a 1.0501686,1.0501686 0 0 0 0.63879,1.10585 c 2.24659,0.93253 4.65441,1.41486 7.08683,1.41813 a 1.0501686,1.0501686 0 0 0 0.002,0 c 3.25636,-5e-5 6.45468,-0.85746 9.27475,-2.4857 0.21472,-0.12399 0.42523,-0.25343 0.63386,-0.3853 -0.59872,-0.43825 -1.17203,-0.91133 -1.71729,-1.41485 -2.49247,1.43137 -5.31582,2.18549 -8.19049,2.18572 -1.864,-0.003 -3.69452,-0.38216 -5.44776,-1.00248 0.25312,-1.36393 0.64406,-2.69841 1.21195,-3.95907 -0.35814,-0.96198 -0.6151,-1.95841 -0.77279,-2.9708 z m 28.40997,1.00439 c -1.53222,5.60425 -6.64934,9.71391 -12.7457,9.71391 -1.61519,0 -3.16142,-0.28917 -4.59102,-0.81735 -0.90476,0.2962 -1.83165,0.52471 -2.77036,0.68445 2.17676,1.22915 4.68733,1.93415 7.36138,1.93415 6.31727,0 11.7299,-3.91862 13.94534,-9.45222 -0.34741,-0.71655 -0.7485,-1.40698 -1.19964,-2.06294 z"
         inkscape:export-filename="/home/vishal/Documents/viar-logo1.png"
         inkscape:export-xdpi="36.533211"
         inkscape:export-ydpi="36.533211" />
      <path
         id="path1790"
         style="color:#000000;opacity:0.916162;fill:#000000;fill-opacity:1;stroke-width:0.150998;stroke-linecap:round;stroke-linejoin:round;-inkscape-stroke:none;filter:url(#filter1810)"
         d="m 330.29808,170.22408 a 0.29966778,0.29966977 0 0 0 -0.18221,0.0619 c -1.30394,1.00169 -2.06864,2.55302 -2.06883,4.19731 a 0.29966778,0.29966977 0 0 0 0,3.1e-4 c 0,0.0721 0.003,0.14385 0.004,0.21553 0.19371,-0.0865 0.39229,-0.16221 0.59443,-0.2263 0.003,-1.37037 0.62076,-2.65141 1.65519,-3.53809 0.28192,0.24115 0.53935,0.5089 0.76026,0.80512 0.2938,0.0509 0.58247,0.13084 0.86076,0.23839 -0.0257,-0.0477 -0.0518,-0.095 -0.0789,-0.14194 a 0.29966778,0.29966977 0 0 0 0,-8e-5 0.29966778,0.29966977 0 0 0 0,-7e-5 0.29966778,0.29966977 0 0 0 0,-8e-5 c -0.34827,-0.60133 -0.81164,-1.12805 -1.36343,-1.55041 a 0.29966778,0.29966977 0 0 0 -0.18229,-0.0617 z m 0.003,1.69093 c -0.20599,0 -0.40854,0.015 -0.60685,0.0431 -0.13217,0.1885 -0.24993,0.38702 -0.35184,0.59343 0.30604,-0.0799 0.62729,-0.12258 0.95869,-0.12258 1.90397,0 3.47358,1.4045 3.73306,3.23579 0.19761,0.18133 0.38179,0.37736 0.55114,0.58562 0,-0.0167 8.6e-4,-0.0332 8.6e-4,-0.05 0,-2.36376 -1.92171,-4.28548 -4.28543,-4.28548 z m -2.11136,0.55699 c -1.29736,0.73731 -2.17408,2.13198 -2.17408,3.72849 0,1.03427 0.36793,1.98393 0.97983,2.725 0.22905,0.0157 0.45909,0.0121 0.68776,-0.009 -0.7111,-0.68558 -1.15361,-1.64781 -1.15361,-2.71572 0,-1.19541 0.55367,-2.25913 1.4189,-2.94966 0.0614,-0.26499 0.14199,-0.52549 0.2412,-0.77883 z m 3.50998,0.48566 c 0.16802,0.48896 0.25506,1.00421 0.25509,1.52536 -4.5e-4,0.61773 -0.12723,1.2167 -0.35949,1.77029 l -0.008,-0.003 c -0.0761,0.1895 -0.16542,0.37264 -0.26461,0.54988 -0.23074,0.39571 -0.5191,0.75968 -0.85856,1.07872 0.006,0.004 0.0104,0.009 0.0161,0.0132 0,1.3e-4 -4.5e-4,3.2e-4 -4.5e-4,4.6e-4 0.0454,0.0387 0.0916,0.0762 0.13865,0.11286 0.0566,0.0444 0.11449,0.0873 0.17339,0.12876 0.016,0.0116 0.0327,0.0214 0.0488,0.0324 0.0431,0.0294 0.0862,0.0589 0.13047,0.0868 0,0 0,-9e-5 0,-9e-5 6e-4,3.1e-4 8.6e-4,7.6e-4 8.6e-4,8.6e-4 0.25015,-0.24628 0.47361,-0.51695 0.66934,-0.80629 4.6e-4,-3e-4 4.6e-4,-7.6e-4 7.6e-4,-8.6e-4 0.0415,-0.0615 0.0815,-0.12409 0.12041,-0.18728 0.009,-0.0141 0.0178,-0.0281 0.0264,-0.0424 0.0331,-0.0548 0.0648,-0.11055 0.0958,-0.1666 0.0133,-0.0238 0.0267,-0.0474 0.0395,-0.0715 0.0266,-0.0497 0.0518,-0.0999 0.0769,-0.15035 0.0157,-0.0317 0.0314,-0.0634 0.0465,-0.0952 0.0211,-0.0449 0.0413,-0.0902 0.0612,-0.13578 0.017,-0.0387 0.0335,-0.0774 0.0495,-0.11651 0.008,-0.0196 0.017,-0.0387 0.0248,-0.0585 l -8.6e-4,-4.5e-4 c 0.24116,-0.61014 0.37122,-1.26659 0.37166,-1.9394 a 0.29966778,0.29966977 0 0 0 0,-7e-5 0.29966778,0.29966977 0 0 0 0,-8e-5 0.29966778,0.29966977 0 0 0 0,-8e-5 0.29966778,0.29966977 0 0 0 0,-8e-5 c 2e-5,-0.36954 -0.0394,-0.73639 -0.11518,-1.09501 -0.22783,-0.1728 -0.47663,-0.31744 -0.73918,-0.43065 z m -1.35156,1.49953 c -0.0138,-1.2e-4 -0.0276,8.6e-4 -0.0414,8.6e-4 -0.0128,-2e-5 -0.0257,-4.9e-4 -0.0385,-4e-4 v 0 c -0.0455,3.1e-4 -0.091,0.003 -0.13663,0.003 -0.0548,0.003 -0.1095,0.004 -0.16425,0.008 -0.0654,0.004 -0.1306,0.009 -0.19563,0.0156 -0.0415,0.004 -0.0829,0.009 -0.12438,0.015 -0.0517,0.007 -0.10311,0.0134 -0.15442,0.0214 -0.12467,0.0194 -0.24906,0.0417 -0.37259,0.0699 v 8.6e-4 c -0.85488,0.19606 -1.65716,0.60221 -2.32509,1.19146 -0.0121,0.10404 -0.0198,0.20884 -0.0227,0.31423 -0.006,0.17419 0.003,0.3521 0.0228,0.52826 0.65124,-0.73171 1.50554,-1.22743 2.43104,-1.44497 l 0.003,0.0187 c 0.44674,-0.11194 0.90299,-0.16198 1.35751,-0.13485 0.35257,0.0244 0.70533,0.0962 1.05373,0.20382 8.6e-4,-0.006 0.003,-0.0116 0.003,-0.017 0,3e-5 0,4e-5 4.6e-4,8e-5 0.004,-0.0237 0.008,-0.0474 0.0116,-0.0712 0.003,-0.0241 0.008,-0.0482 0.0117,-0.0724 0.003,-0.0255 0.007,-0.0511 0.0104,-0.0768 0.003,-0.0257 0.007,-0.0511 0.009,-0.0768 0.003,-0.0337 0.007,-0.0673 0.009,-0.10091 8.6e-4,-0.0167 0.003,-0.0333 0.004,-0.05 0.003,-0.0515 0.007,-0.10312 0.009,-0.15473 -0.021,-0.006 -0.0424,-0.0104 -0.0634,-0.0159 -0.0485,-0.0127 -0.0971,-0.025 -0.14576,-0.0363 -0.0293,-0.007 -0.0584,-0.0138 -0.0877,-0.0202 -0.0642,-0.014 -0.12867,-0.0265 -0.19313,-0.0381 -0.0304,-0.006 -0.0609,-0.0104 -0.0914,-0.0152 -0.0489,-0.008 -0.0979,-0.0148 -0.14692,-0.0214 -0.0445,-0.006 -0.0892,-0.0116 -0.13384,-0.0158 -0.0462,-0.004 -0.0926,-0.009 -0.1388,-0.0127 -0.0202,-8.6e-4 -0.0403,-0.004 -0.0605,-0.006 -0.0104,-6.8e-4 -0.0213,-5.4e-4 -0.032,-8.6e-4 -0.0571,-0.003 -0.11402,-0.006 -0.17104,-0.008 -0.0164,-4.4e-4 -0.033,-1.7e-4 -0.0494,-4.8e-4 -0.0159,-2.7e-4 -0.0318,-8.6e-4 -0.0478,-0.003 z m 2.41404,0.6074 c -0.023,0.21004 -0.0578,0.4188 -0.1044,0.62494 1.18454,0.68812 1.98501,1.86314 2.23557,3.20194 -0.37963,0.13415 -0.7719,0.22848 -1.17139,0.26654 -0.19245,0.22394 -0.40633,0.42933 -0.639,0.61123 0.0859,0.004 0.17205,0.007 0.25837,0.007 a 0.29966778,0.29966977 0 0 0 6e-4,0 c 0.69488,-8.7e-4 1.38266,-0.13884 2.02435,-0.40553 a 0.29966778,0.29966977 0 0 0 0.18197,-0.31587 c -0.21551,-1.6301 -1.17672,-3.06804 -2.60061,-3.89033 a 0.29966778,0.29966977 0 0 0 0,-8e-5 0.29966778,0.29966977 0 0 0 0,-8e-5 0.29966778,0.29966977 0 0 0 0,-8e-5 c -0.061,-0.0351 -0.12327,-0.0672 -0.18533,-0.0998 z m -3.96467,0.4933 c -0.007,0.003 -0.0127,0.004 -0.0191,0.007 -3e-5,-1.3e-4 0,-3.1e-4 0,-4.6e-4 -0.0288,0.0104 -0.0574,0.022 -0.0862,0.0331 -0.016,0.006 -0.032,0.0121 -0.0479,0.0184 -0.0328,0.0131 -0.0653,0.027 -0.0979,0.041 -0.0153,0.007 -0.0307,0.0128 -0.0458,0.0195 -0.0347,0.0153 -0.0691,0.0314 -0.10335,0.0475 -0.0127,0.006 -0.0257,0.0117 -0.0383,0.0177 -0.0471,0.0227 -0.0938,0.0462 -0.14014,0.0706 0.0391,0.15035 0.0867,0.29791 0.13873,0.44376 0.009,0.0251 0.0174,0.0504 0.0267,0.0754 0.02,0.0535 0.0414,0.10613 0.0631,0.15888 0.015,0.0363 0.0298,0.0726 0.0455,0.10856 0.02,0.0455 0.0407,0.0908 0.0619,0.13585 0.0203,0.0431 0.0411,0.0858 0.0625,0.12829 0.0197,0.0391 0.0395,0.0782 0.0602,0.11674 0.0269,0.0504 0.0551,0.0999 0.0835,0.14919 0.0175,0.0303 0.0345,0.0608 0.0527,0.0907 0.0399,0.0661 0.0815,0.13099 0.12431,0.19524 0.009,0.0133 0.0171,0.027 0.0261,0.0403 0.11043,0.16282 0.23032,0.31914 0.35841,0.4689 8.6e-4,8.6e-4 0.003,0.003 0.004,0.006 l 4.5e-4,-1.5e-4 c 0.38407,0.44792 0.84391,0.83439 1.36726,1.137 a 0.29966778,0.29966977 0 0 0 4.5e-4,3.1e-4 c 0.29106,0.16804 0.59641,0.30687 0.9114,0.41621 0.2662,-0.10486 0.51952,-0.24214 0.75176,-0.41107 -0.47711,-0.1023 -0.93749,-0.2782 -1.3636,-0.52421 -0.41638,-0.24078 -0.78504,-0.54193 -1.09953,-0.88893 l 0.0152,-0.007 c -0.23034,-0.24739 -0.43241,-0.51721 -0.60396,-0.8042 -0.22918,-0.39951 -0.40141,-0.83356 -0.50845,-1.28962 z m -2.96627,1.35557 c -0.0392,0.0619 -0.0778,0.12446 -0.11483,0.18844 a 0.29966778,0.29966977 0 0 0 -4.5e-4,6e-4 c -0.34624,0.60158 -0.57084,1.26529 -0.66092,1.95352 a 0.29966778,0.29966977 0 0 0 0.18228,0.31555 c 0.64106,0.26611 1.32814,0.40375 2.02224,0.40468 a 0.29966778,0.29966977 0 0 0 6e-4,0 c 0.92922,-2e-5 1.84186,-0.24469 2.64657,-0.70931 0.0612,-0.0354 0.12134,-0.0722 0.18088,-0.10996 -0.17085,-0.12505 -0.33444,-0.26006 -0.49003,-0.40373 -0.71124,0.40845 -1.51689,0.62364 -2.33719,0.6237 -0.53189,-7.6e-4 -1.05423,-0.10903 -1.55452,-0.28607 0.0722,-0.38919 0.18379,-0.76999 0.34583,-1.12973 -0.10219,-0.2745 -0.17552,-0.55884 -0.22052,-0.84773 z m 8.10685,0.2866 c -0.43722,1.5992 -1.8974,2.77191 -3.63701,2.77191 -0.46089,0 -0.90212,-0.0825 -1.31005,-0.23324 -0.25818,0.0846 -0.52267,0.14973 -0.79053,0.19531 0.62113,0.35075 1.33754,0.55191 2.10058,0.55191 1.80265,0 3.34715,-1.11819 3.97934,-2.69722 -0.0992,-0.20447 -0.21359,-0.40148 -0.34233,-0.58867 z"
         inkscape:export-filename="/home/vishal/Documents/viar-logo1.png"
         inkscape:export-xdpi="36.533211"
         inkscape:export-ydpi="36.533211" />
      <path
         id="path2071"
         style="color:#000000;opacity:0.916162;fill:url(#radialGradient32972);fill-opacity:1;stroke-width:0.150998;stroke-linecap:round;stroke-linejoin:round;-inkscape-stroke:none"
         d="m 330.29808,170.06663 a 0.29966778,0.29966977 0 0 0 -0.18221,0.0619 c -1.30394,1.00169 -2.06864,2.55302 -2.06883,4.19731 a 0.29966778,0.29966977 0 0 0 0,3.1e-4 c 0,0.0721 0.003,0.14385 0.004,0.21553 0.19371,-0.0865 0.39229,-0.16221 0.59443,-0.2263 0.003,-1.37037 0.62076,-2.65141 1.65519,-3.53809 0.28192,0.24115 0.53935,0.5089 0.76026,0.80512 0.2938,0.0509 0.58247,0.13084 0.86076,0.23839 -0.0257,-0.0477 -0.0518,-0.095 -0.0789,-0.14194 a 0.29966778,0.29966977 0 0 0 0,-8e-5 0.29966778,0.29966977 0 0 0 0,-7e-5 0.29966778,0.29966977 0 0 0 0,-8e-5 c -0.34827,-0.60133 -0.81164,-1.12805 -1.36343,-1.55041 a 0.29966778,0.29966977 0 0 0 -0.18229,-0.0617 z m 0.003,1.69093 c -0.20599,0 -0.40854,0.015 -0.60685,0.0431 -0.13217,0.1885 -0.24993,0.38702 -0.35184,0.59343 0.30604,-0.0799 0.62729,-0.12258 0.95869,-0.12258 1.90397,0 3.47358,1.4045 3.73306,3.23579 0.19761,0.18133 0.38179,0.37736 0.55114,0.58562 0,-0.0167 8.6e-4,-0.0332 8.6e-4,-0.05 0,-2.36376 -1.92171,-4.28548 -4.28543,-4.28548 z m -2.11136,0.55699 c -1.29736,0.73731 -2.17408,2.13198 -2.17408,3.72849 0,1.03427 0.36793,1.98393 0.97983,2.725 0.22905,0.0157 0.45909,0.0121 0.68776,-0.009 -0.7111,-0.68558 -1.15361,-1.64781 -1.15361,-2.71572 0,-1.19541 0.55367,-2.25913 1.4189,-2.94966 0.0614,-0.26499 0.14199,-0.52549 0.2412,-0.77883 z m 3.50998,0.48566 c 0.16802,0.48896 0.25506,1.00421 0.25509,1.52536 -4.5e-4,0.61773 -0.12723,1.2167 -0.35949,1.77029 l -0.008,-0.003 c -0.0761,0.1895 -0.16542,0.37264 -0.26461,0.54988 -0.23074,0.39571 -0.5191,0.75968 -0.85856,1.07872 0.006,0.004 0.0104,0.009 0.0161,0.0132 0,1.3e-4 -4.5e-4,3.2e-4 -4.5e-4,4.6e-4 0.0454,0.0387 0.0916,0.0762 0.13865,0.11286 0.0566,0.0444 0.11449,0.0873 0.17339,0.12876 0.016,0.0116 0.0327,0.0214 0.0488,0.0324 0.0431,0.0294 0.0862,0.0589 0.13047,0.0868 0,0 0,-9e-5 0,-9e-5 6e-4,3.1e-4 8.6e-4,7.6e-4 8.6e-4,8.6e-4 0.25015,-0.24628 0.47361,-0.51695 0.66934,-0.80629 4.6e-4,-3e-4 4.6e-4,-7.6e-4 7.6e-4,-8.6e-4 0.0415,-0.0615 0.0815,-0.12409 0.12041,-0.18728 0.009,-0.0141 0.0178,-0.0281 0.0264,-0.0424 0.0331,-0.0548 0.0648,-0.11055 0.0958,-0.1666 0.0133,-0.0238 0.0267,-0.0474 0.0395,-0.0715 0.0266,-0.0497 0.0518,-0.0999 0.0769,-0.15035 0.0157,-0.0317 0.0314,-0.0634 0.0465,-0.0952 0.0211,-0.0449 0.0413,-0.0902 0.0612,-0.13578 0.017,-0.0387 0.0335,-0.0774 0.0495,-0.11651 0.008,-0.0196 0.017,-0.0387 0.0248,-0.0585 l -8.6e-4,-4.5e-4 c 0.24116,-0.61014 0.37122,-1.26659 0.37166,-1.9394 a 0.29966778,0.29966977 0 0 0 0,-7e-5 0.29966778,0.29966977 0 0 0 0,-8e-5 0.29966778,0.29966977 0 0 0 0,-8e-5 0.29966778,0.29966977 0 0 0 0,-8e-5 c 2e-5,-0.36954 -0.0394,-0.73639 -0.11518,-1.09501 -0.22783,-0.1728 -0.47663,-0.31744 -0.73918,-0.43065 z m -1.35156,1.49953 c -0.0138,-1.2e-4 -0.0276,8.6e-4 -0.0414,8.6e-4 -0.0128,-2e-5 -0.0257,-4.9e-4 -0.0385,-4e-4 v 0 c -0.0455,3.1e-4 -0.091,0.003 -0.13663,0.003 -0.0548,0.003 -0.1095,0.004 -0.16425,0.008 -0.0654,0.004 -0.1306,0.009 -0.19563,0.0156 -0.0415,0.004 -0.0829,0.009 -0.12438,0.015 -0.0517,0.007 -0.10311,0.0134 -0.15442,0.0214 -0.12467,0.0194 -0.24906,0.0417 -0.37259,0.0699 v 8.6e-4 c -0.85488,0.19606 -1.65716,0.60221 -2.32509,1.19146 -0.0121,0.10404 -0.0198,0.20884 -0.0227,0.31423 -0.006,0.17419 0.003,0.3521 0.0228,0.52826 0.65124,-0.73171 1.50554,-1.22743 2.43104,-1.44497 l 0.003,0.0187 c 0.44674,-0.11194 0.90299,-0.16198 1.35751,-0.13485 0.35257,0.0244 0.70533,0.0962 1.05373,0.20382 8.6e-4,-0.006 0.003,-0.0116 0.003,-0.017 0,3e-5 0,4e-5 4.6e-4,8e-5 0.004,-0.0237 0.008,-0.0474 0.0116,-0.0712 0.003,-0.0241 0.008,-0.0482 0.0117,-0.0724 0.003,-0.0255 0.007,-0.0511 0.0104,-0.0768 0.003,-0.0257 0.007,-0.0511 0.009,-0.0768 0.003,-0.0337 0.007,-0.0673 0.009,-0.10091 8.6e-4,-0.0167 0.003,-0.0333 0.004,-0.05 0.003,-0.0515 0.007,-0.10312 0.009,-0.15473 -0.021,-0.006 -0.0424,-0.0104 -0.0634,-0.0159 -0.0485,-0.0127 -0.0971,-0.025 -0.14576,-0.0363 -0.0293,-0.007 -0.0584,-0.0138 -0.0877,-0.0202 -0.0642,-0.014 -0.12867,-0.0265 -0.19313,-0.0381 -0.0304,-0.006 -0.0609,-0.0104 -0.0914,-0.0152 -0.0489,-0.008 -0.0979,-0.0148 -0.14692,-0.0214 -0.0445,-0.006 -0.0892,-0.0116 -0.13384,-0.0158 -0.0462,-0.004 -0.0926,-0.009 -0.1388,-0.0127 -0.0202,-8.6e-4 -0.0403,-0.004 -0.0605,-0.006 -0.0104,-6.8e-4 -0.0213,-5.4e-4 -0.032,-8.6e-4 -0.0571,-0.003 -0.11402,-0.006 -0.17104,-0.008 -0.0164,-4.4e-4 -0.033,-1.7e-4 -0.0494,-4.8e-4 -0.0159,-2.7e-4 -0.0318,-8.6e-4 -0.0478,-0.003 z m 2.41404,0.6074 c -0.023,0.21004 -0.0578,0.4188 -0.1044,0.62494 1.18454,0.68812 1.98501,1.86314 2.23557,3.20194 -0.37963,0.13415 -0.7719,0.22848 -1.17139,0.26654 -0.19245,0.22394 -0.40633,0.42933 -0.639,0.61123 0.0859,0.004 0.17205,0.007 0.25837,0.007 a 0.29966778,0.29966977 0 0 0 6e-4,0 c 0.69488,-8.7e-4 1.38266,-0.13884 2.02435,-0.40553 a 0.29966778,0.29966977 0 0 0 0.18197,-0.31587 c -0.21551,-1.6301 -1.17672,-3.06804 -2.60061,-3.89033 a 0.29966778,0.29966977 0 0 0 0,-8e-5 0.29966778,0.29966977 0 0 0 0,-8e-5 0.29966778,0.29966977 0 0 0 0,-8e-5 c -0.061,-0.0351 -0.12327,-0.0672 -0.18533,-0.0998 z m -3.96467,0.4933 c -0.007,0.003 -0.0127,0.004 -0.0191,0.007 -3e-5,-1.3e-4 0,-3.1e-4 0,-4.6e-4 -0.0288,0.0104 -0.0574,0.022 -0.0862,0.0331 -0.016,0.006 -0.032,0.0121 -0.0479,0.0184 -0.0328,0.0131 -0.0653,0.027 -0.0979,0.041 -0.0153,0.007 -0.0307,0.0128 -0.0458,0.0195 -0.0347,0.0153 -0.0691,0.0314 -0.10335,0.0475 -0.0127,0.006 -0.0257,0.0117 -0.0383,0.0177 -0.0471,0.0227 -0.0938,0.0462 -0.14014,0.0706 0.0391,0.15035 0.0867,0.29791 0.13873,0.44376 0.009,0.0251 0.0174,0.0504 0.0267,0.0754 0.02,0.0535 0.0414,0.10613 0.0631,0.15888 0.015,0.0363 0.0298,0.0726 0.0455,0.10856 0.02,0.0455 0.0407,0.0908 0.0619,0.13585 0.0203,0.0431 0.0411,0.0858 0.0625,0.12829 0.0197,0.0391 0.0395,0.0782 0.0602,0.11674 0.0269,0.0504 0.0551,0.0999 0.0835,0.14919 0.0175,0.0303 0.0345,0.0608 0.0527,0.0907 0.0399,0.0661 0.0815,0.13099 0.12431,0.19524 0.009,0.0133 0.0171,0.027 0.0261,0.0403 0.11043,0.16282 0.23032,0.31914 0.35841,0.4689 8.6e-4,8.6e-4 0.003,0.003 0.004,0.006 l 4.5e-4,-1.5e-4 c 0.38407,0.44792 0.84391,0.83439 1.36726,1.137 a 0.29966778,0.29966977 0 0 0 4.5e-4,3.1e-4 c 0.29106,0.16804 0.59641,0.30687 0.9114,0.41621 0.2662,-0.10486 0.51952,-0.24214 0.75176,-0.41107 -0.47711,-0.1023 -0.93749,-0.2782 -1.3636,-0.52421 -0.41638,-0.24078 -0.78504,-0.54193 -1.09953,-0.88893 l 0.0152,-0.007 c -0.23034,-0.24739 -0.43241,-0.51721 -0.60396,-0.8042 -0.22918,-0.39951 -0.40141,-0.83356 -0.50845,-1.28962 z m -2.96627,1.35557 c -0.0392,0.0619 -0.0778,0.12446 -0.11483,0.18844 a 0.29966778,0.29966977 0 0 0 -4.5e-4,6e-4 c -0.34624,0.60158 -0.57084,1.26529 -0.66092,1.95352 a 0.29966778,0.29966977 0 0 0 0.18228,0.31555 c 0.64106,0.26611 1.32814,0.40375 2.02224,0.40468 a 0.29966778,0.29966977 0 0 0 6e-4,0 c 0.92922,-2e-5 1.84186,-0.24469 2.64657,-0.70931 0.0612,-0.0354 0.12134,-0.0722 0.18088,-0.10996 -0.17085,-0.12505 -0.33444,-0.26006 -0.49003,-0.40373 -0.71124,0.40845 -1.51689,0.62364 -2.33719,0.6237 -0.53189,-7.6e-4 -1.05423,-0.10903 -1.55452,-0.28607 0.0722,-0.38919 0.18379,-0.76999 0.34583,-1.12973 -0.10219,-0.2745 -0.17552,-0.55884 -0.22052,-0.84773 z m 8.10685,0.2866 c -0.43722,1.5992 -1.8974,2.77191 -3.63701,2.77191 -0.46089,0 -0.90212,-0.0825 -1.31005,-0.23324 -0.25818,0.0846 -0.52267,0.14973 -0.79053,0.19531 0.62113,0.35075 1.33754,0.55191 2.10058,0.55191 1.80265,0 3.34715,-1.11819 3.97934,-2.69722 -0.0992,-0.20447 -0.21359,-0.40148 -0.34233,-0.58867 z"
         inkscape:export-filename="/home/vishal/Documents/viar-logo1.png"
         inkscape:export-xdpi="36.533211"
         inkscape:export-ydpi="36.533211" />
    </g>
  </g>
</svg>
